{
    "Veneto": ["Vicenza","San Dona' di Piave","Padova","Belluno","Padova","Treviso","Verona"],
    "Emilia Romagna": ["Bologna","Modena","Cesena","Pavia","Piacenza"],
    "Lombardia": ["Milano","Mantova","Brescia","Bergamo","Seregno","Sondrio","Pavia","Varese","Cormano"],
    "Toscana":["Firenze","Arezzo"],
    "Lazio":["Roma", "Rieti"],
    "Sicilia":["Palermo","Catania","Ragusa"],
    "Campania":["Napoli","Salerno"],
    "Piemonte":["Torino","Novara"],
    "Liguria":["Genova","Imperia"],
    "Friuli Venezia Giulia":["Pordenone","Trieste","Udine"],
    "Puglia":["Bari","Lecce"],
    "Marche":["Ancona"],
    "Trentino-Alto Adige":["Bolzano"],
    "Abruzzo":["Teramo"],
    "Umbria":["Perugia","Terni"],
    "Calabria":["Rende"]
}
